C:\Users\jtinocotejeida\Documents\NetBeansProjects\Assignment1_TinocoJaime\src\main\java\info\hcos\assignment1_tinocojaime\MainClass.java
C:\Users\jtinocotejeida\Documents\NetBeansProjects\Assignment1_TinocoJaime\src\main\java\info\hcos\assignment1_tinocojaime\OJTDAO.java
C:\Users\jtinocotejeida\Documents\NetBeansProjects\Assignment1_TinocoJaime\src\main\java\info\hcos\assignment1_tinocojaime\Utility.java
C:\Users\jtinocotejeida\Documents\NetBeansProjects\Assignment1_TinocoJaime\src\main\java\info\hcos\assignment1_tinocojaime\OJTReflection.java
